digraph {
	graph [size="103.95,103.95"]
	node [align=left fontsize=12 height=0.2 ranksep=0.1 shape=box style=filled]
	140035840570424 [label=AddmmBackward fillcolor=darkolivegreen1]
	140035840571376 -> 140035840570424
	140035840571376 [label="fc.bias
 (1000)" fillcolor=lightblue]
	140035840570032 -> 140035840570424
	140035840570032 [label=ViewBackward]
	140035840571432 -> 140035840570032
	140035840571432 [label=ViewBackward]
	140035840570368 -> 140035840571432
	140035840570368 [label=MeanBackward1]
	140035840628720 -> 140035840570368
	140035840628720 [label=ViewBackward]
	140035840628104 -> 140035840628720
	140035840628104 [label=ReluBackward1]
	140035840628216 -> 140035840628104
	140035840628216 [label=AddBackward0]
	140035840628384 -> 140035840628216
	140035840628384 [label=NativeBatchNormBackward]
	140035840628440 -> 140035840628384
	140035840628440 [label=MkldnnConvolutionBackward]
	140035840628776 -> 140035840628440
	140035840628776 [label=ReluBackward1]
	140035840628944 -> 140035840628776
	140035840628944 [label=NativeBatchNormBackward]
	140035840629056 -> 140035840628944
	140035840629056 [label=MkldnnConvolutionBackward]
	140035840629280 -> 140035840629056
	140035840629280 [label=ReluBackward1]
	140035840629448 -> 140035840629280
	140035840629448 [label=NativeBatchNormBackward]
	140035840629560 -> 140035840629448
	140035840629560 [label=MkldnnConvolutionBackward]
	140035840628328 -> 140035840629560
	140035840628328 [label=ReluBackward1]
	140035840629896 -> 140035840628328
	140035840629896 [label=AddBackward0]
	140035840630008 -> 140035840629896
	140035840630008 [label=NativeBatchNormBackward]
	140035840630176 -> 140035840630008
	140035840630176 [label=MkldnnConvolutionBackward]
	140035840630400 -> 140035840630176
	140035840630400 [label=ReluBackward1]
	140035840630568 -> 140035840630400
	140035840630568 [label=NativeBatchNormBackward]
	140035840630680 -> 140035840630568
	140035840630680 [label=MkldnnConvolutionBackward]
	140035840307384 -> 140035840630680
	140035840307384 [label=ReluBackward1]
	140035840307552 -> 140035840307384
	140035840307552 [label=NativeBatchNormBackward]
	140035840307720 -> 140035840307552
	140035840307720 [label=MkldnnConvolutionBackward]
	140035840630064 -> 140035840307720
	140035840630064 [label=ReluBackward1]
	140035840308056 -> 140035840630064
	140035840308056 [label=AddBackward0]
	140035840308224 -> 140035840308056
	140035840308224 [label=NativeBatchNormBackward]
	140035840308392 -> 140035840308224
	140035840308392 [label=MkldnnConvolutionBackward]
	140035840308616 -> 140035840308392
	140035840308616 [label=ReluBackward1]
	140035840308784 -> 140035840308616
	140035840308784 [label=NativeBatchNormBackward]
	140035840308952 -> 140035840308784
	140035840308952 [label=MkldnnConvolutionBackward]
	140035840309176 -> 140035840308952
	140035840309176 [label=ReluBackward1]
	140035840309344 -> 140035840309176
	140035840309344 [label=NativeBatchNormBackward]
	140035840309512 -> 140035840309344
	140035840309512 [label=MkldnnConvolutionBackward]
	140035840309736 -> 140035840309512
	140035840309736 [label=ReluBackward1]
	140035840309904 -> 140035840309736
	140035840309904 [label=AddBackward0]
	140035840310072 -> 140035840309904
	140035840310072 [label=NativeBatchNormBackward]
	140035840310240 -> 140035840310072
	140035840310240 [label=MkldnnConvolutionBackward]
	140035840310464 -> 140035840310240
	140035840310464 [label=ReluBackward1]
	140035840310632 -> 140035840310464
	140035840310632 [label=NativeBatchNormBackward]
	140035840310800 -> 140035840310632
	140035840310800 [label=MkldnnConvolutionBackward]
	140035840311024 -> 140035840310800
	140035840311024 [label=ReluBackward1]
	140035840311192 -> 140035840311024
	140035840311192 [label=NativeBatchNormBackward]
	140035840295040 -> 140035840311192
	140035840295040 [label=MkldnnConvolutionBackward]
	140035840310128 -> 140035840295040
	140035840310128 [label=ReluBackward1]
	140035840295376 -> 140035840310128
	140035840295376 [label=AddBackward0]
	140035840295544 -> 140035840295376
	140035840295544 [label=NativeBatchNormBackward]
	140035840295712 -> 140035840295544
	140035840295712 [label=MkldnnConvolutionBackward]
	140035840295936 -> 140035840295712
	140035840295936 [label=ReluBackward1]
	140035840296104 -> 140035840295936
	140035840296104 [label=NativeBatchNormBackward]
	140035840296272 -> 140035840296104
	140035840296272 [label=MkldnnConvolutionBackward]
	140035840296496 -> 140035840296272
	140035840296496 [label=ReluBackward1]
	140035840296664 -> 140035840296496
	140035840296664 [label=NativeBatchNormBackward]
	140035840296832 -> 140035840296664
	140035840296832 [label=MkldnnConvolutionBackward]
	140035840295600 -> 140035840296832
	140035840295600 [label=ReluBackward1]
	140035840297168 -> 140035840295600
	140035840297168 [label=AddBackward0]
	140035840297336 -> 140035840297168
	140035840297336 [label=NativeBatchNormBackward]
	140035840297504 -> 140035840297336
	140035840297504 [label=MkldnnConvolutionBackward]
	140035840297728 -> 140035840297504
	140035840297728 [label=ReluBackward1]
	140035840297896 -> 140035840297728
	140035840297896 [label=NativeBatchNormBackward]
	140035840298064 -> 140035840297896
	140035840298064 [label=MkldnnConvolutionBackward]
	140035840298288 -> 140035840298064
	140035840298288 [label=ReluBackward1]
	140035840298456 -> 140035840298288
	140035840298456 [label=NativeBatchNormBackward]
	140035840298624 -> 140035840298456
	140035840298624 [label=MkldnnConvolutionBackward]
	140035840297392 -> 140035840298624
	140035840297392 [label=ReluBackward1]
	140035840298960 -> 140035840297392
	140035840298960 [label=AddBackward0]
	140035840258232 -> 140035840298960
	140035840258232 [label=NativeBatchNormBackward]
	140035840258400 -> 140035840258232
	140035840258400 [label=MkldnnConvolutionBackward]
	140035840258624 -> 140035840258400
	140035840258624 [label=ReluBackward1]
	140035840258792 -> 140035840258624
	140035840258792 [label=NativeBatchNormBackward]
	140035840258960 -> 140035840258792
	140035840258960 [label=MkldnnConvolutionBackward]
	140035840259184 -> 140035840258960
	140035840259184 [label=ReluBackward1]
	140035840259352 -> 140035840259184
	140035840259352 [label=NativeBatchNormBackward]
	140035840259520 -> 140035840259352
	140035840259520 [label=MkldnnConvolutionBackward]
	140035840258288 -> 140035840259520
	140035840258288 [label=ReluBackward1]
	140035840259856 -> 140035840258288
	140035840259856 [label=AddBackward0]
	140035840260024 -> 140035840259856
	140035840260024 [label=NativeBatchNormBackward]
	140035840260192 -> 140035840260024
	140035840260192 [label=MkldnnConvolutionBackward]
	140035840260416 -> 140035840260192
	140035840260416 [label=ReluBackward1]
	140035840260584 -> 140035840260416
	140035840260584 [label=NativeBatchNormBackward]
	140035840260752 -> 140035840260584
	140035840260752 [label=MkldnnConvolutionBackward]
	140035840260976 -> 140035840260752
	140035840260976 [label=ReluBackward1]
	140035840261144 -> 140035840260976
	140035840261144 [label=NativeBatchNormBackward]
	140035840261312 -> 140035840261144
	140035840261312 [label=MkldnnConvolutionBackward]
	140035840260080 -> 140035840261312
	140035840260080 [label=ReluBackward1]
	140035840261648 -> 140035840260080
	140035840261648 [label=AddBackward0]
	140035840261816 -> 140035840261648
	140035840261816 [label=NativeBatchNormBackward]
	140035840261984 -> 140035840261816
	140035840261984 [label=MkldnnConvolutionBackward]
	140035840245888 -> 140035840261984
	140035840245888 [label=ReluBackward1]
	140035840246056 -> 140035840245888
	140035840246056 [label=NativeBatchNormBackward]
	140035840246224 -> 140035840246056
	140035840246224 [label=MkldnnConvolutionBackward]
	140035840246448 -> 140035840246224
	140035840246448 [label=ReluBackward1]
	140035840246616 -> 140035840246448
	140035840246616 [label=NativeBatchNormBackward]
	140035840246784 -> 140035840246616
	140035840246784 [label=MkldnnConvolutionBackward]
	140035840247008 -> 140035840246784
	140035840247008 [label=ReluBackward1]
	140035840247176 -> 140035840247008
	140035840247176 [label=AddBackward0]
	140035840247344 -> 140035840247176
	140035840247344 [label=NativeBatchNormBackward]
	140035840247512 -> 140035840247344
	140035840247512 [label=MkldnnConvolutionBackward]
	140035840247736 -> 140035840247512
	140035840247736 [label=ReluBackward1]
	140035840247904 -> 140035840247736
	140035840247904 [label=NativeBatchNormBackward]
	140035840248072 -> 140035840247904
	140035840248072 [label=MkldnnConvolutionBackward]
	140035840248296 -> 140035840248072
	140035840248296 [label=ReluBackward1]
	140035840248464 -> 140035840248296
	140035840248464 [label=NativeBatchNormBackward]
	140035840248632 -> 140035840248464
	140035840248632 [label=MkldnnConvolutionBackward]
	140035840247400 -> 140035840248632
	140035840247400 [label=ReluBackward1]
	140035840248968 -> 140035840247400
	140035840248968 [label=AddBackward0]
	140035840249136 -> 140035840248968
	140035840249136 [label=NativeBatchNormBackward]
	140035840249304 -> 140035840249136
	140035840249304 [label=MkldnnConvolutionBackward]
	140035840249528 -> 140035840249304
	140035840249528 [label=ReluBackward1]
	140035840249696 -> 140035840249528
	140035840249696 [label=NativeBatchNormBackward]
	140035840221256 -> 140035840249696
	140035840221256 [label=MkldnnConvolutionBackward]
	140035840221480 -> 140035840221256
	140035840221480 [label=ReluBackward1]
	140035840221648 -> 140035840221480
	140035840221648 [label=NativeBatchNormBackward]
	140035840221816 -> 140035840221648
	140035840221816 [label=MkldnnConvolutionBackward]
	140035840249192 -> 140035840221816
	140035840249192 [label=ReluBackward1]
	140035840222152 -> 140035840249192
	140035840222152 [label=AddBackward0]
	140035840222320 -> 140035840222152
	140035840222320 [label=NativeBatchNormBackward]
	140035840222488 -> 140035840222320
	140035840222488 [label=MkldnnConvolutionBackward]
	140035840222712 -> 140035840222488
	140035840222712 [label=ReluBackward1]
	140035840222880 -> 140035840222712
	140035840222880 [label=NativeBatchNormBackward]
	140035840223048 -> 140035840222880
	140035840223048 [label=MkldnnConvolutionBackward]
	140035840223272 -> 140035840223048
	140035840223272 [label=ReluBackward1]
	140035840223440 -> 140035840223272
	140035840223440 [label=NativeBatchNormBackward]
	140035840223608 -> 140035840223440
	140035840223608 [label=MkldnnConvolutionBackward]
	140035840222376 -> 140035840223608
	140035840222376 [label=ReluBackward1]
	140035840223944 -> 140035840222376
	140035840223944 [label=AddBackward0]
	140035840224112 -> 140035840223944
	140035840224112 [label=NativeBatchNormBackward]
	140035840224280 -> 140035840224112
	140035840224280 [label=MkldnnConvolutionBackward]
	140035840224504 -> 140035840224280
	140035840224504 [label=ReluBackward1]
	140035840224672 -> 140035840224504
	140035840224672 [label=NativeBatchNormBackward]
	140035840224840 -> 140035840224672
	140035840224840 [label=MkldnnConvolutionBackward]
	140035840225064 -> 140035840224840
	140035840225064 [label=ReluBackward1]
	140035840225232 -> 140035840225064
	140035840225232 [label=NativeBatchNormBackward]
	140035840270520 -> 140035840225232
	140035840270520 [label=MkldnnConvolutionBackward]
	140035840270744 -> 140035840270520
	140035840270744 [label=ReluBackward1]
	140035840270912 -> 140035840270744
	140035840270912 [label=AddBackward0]
	140035840271080 -> 140035840270912
	140035840271080 [label=NativeBatchNormBackward]
	140035840271248 -> 140035840271080
	140035840271248 [label=MkldnnConvolutionBackward]
	140035840271472 -> 140035840271248
	140035840271472 [label=ReluBackward1]
	140035840271640 -> 140035840271472
	140035840271640 [label=NativeBatchNormBackward]
	140035840271808 -> 140035840271640
	140035840271808 [label=MkldnnConvolutionBackward]
	140035840272032 -> 140035840271808
	140035840272032 [label=ReluBackward1]
	140035840272200 -> 140035840272032
	140035840272200 [label=NativeBatchNormBackward]
	140035840272368 -> 140035840272200
	140035840272368 [label=MkldnnConvolutionBackward]
	140035840271136 -> 140035840272368
	140035840271136 [label=ReluBackward1]
	140035840272704 -> 140035840271136
	140035840272704 [label=AddBackward0]
	140035840272872 -> 140035840272704
	140035840272872 [label=NativeBatchNormBackward]
	140035840273040 -> 140035840272872
	140035840273040 [label=MkldnnConvolutionBackward]
	140035840273264 -> 140035840273040
	140035840273264 [label=ReluBackward1]
	140035840273432 -> 140035840273264
	140035840273432 [label=NativeBatchNormBackward]
	140035840273600 -> 140035840273432
	140035840273600 [label=MkldnnConvolutionBackward]
	140035840273824 -> 140035840273600
	140035840273824 [label=ReluBackward1]
	140035840273992 -> 140035840273824
	140035840273992 [label=NativeBatchNormBackward]
	140035840274160 -> 140035840273992
	140035840274160 [label=MkldnnConvolutionBackward]
	140035840272928 -> 140035840274160
	140035840272928 [label=ReluBackward1]
	140035840340096 -> 140035840272928
	140035840340096 [label=AddBackward0]
	140035840340264 -> 140035840340096
	140035840340264 [label=NativeBatchNormBackward]
	140035840340432 -> 140035840340264
	140035840340432 [label=MkldnnConvolutionBackward]
	140035840340656 -> 140035840340432
	140035840340656 [label=ReluBackward1]
	140035840340824 -> 140035840340656
	140035840340824 [label=NativeBatchNormBackward]
	140035840340992 -> 140035840340824
	140035840340992 [label=MkldnnConvolutionBackward]
	140035840341216 -> 140035840340992
	140035840341216 [label=ReluBackward1]
	140035840341384 -> 140035840341216
	140035840341384 [label=NativeBatchNormBackward]
	140035840341552 -> 140035840341384
	140035840341552 [label=MkldnnConvolutionBackward]
	140035840341776 -> 140035840341552
	140035840341776 [label=MaxPool2DWithIndicesBackward]
	140035840341944 -> 140035840341776
	140035840341944 [label=ReluBackward1]
	140035840342112 -> 140035840341944
	140035840342112 [label=NativeBatchNormBackward]
	140035840342280 -> 140035840342112
	140035840342280 [label=MkldnnConvolutionBackward]
	140035840342504 -> 140035840342280
	140035840342504 [label="conv1.weight
 (64, 3, 7, 7)" fillcolor=lightblue]
	140035840342336 -> 140035840342112
	140035840342336 [label="bn1.weight
 (64)" fillcolor=lightblue]
	140035840342392 -> 140035840342112
	140035840342392 [label="bn1.bias
 (64)" fillcolor=lightblue]
	140035840341832 -> 140035840341552
	140035840341832 [label="layer1.0.conv1.weight
 (64, 64, 1, 1)" fillcolor=lightblue]
	140035840341608 -> 140035840341384
	140035840341608 [label="layer1.0.bn1.weight
 (64)" fillcolor=lightblue]
	140035840341664 -> 140035840341384
	140035840341664 [label="layer1.0.bn1.bias
 (64)" fillcolor=lightblue]
	140035840341272 -> 140035840340992
	140035840341272 [label="layer1.0.conv2.weight
 (64, 64, 3, 3)" fillcolor=lightblue]
	140035840341048 -> 140035840340824
	140035840341048 [label="layer1.0.bn2.weight
 (64)" fillcolor=lightblue]
	140035840341104 -> 140035840340824
	140035840341104 [label="layer1.0.bn2.bias
 (64)" fillcolor=lightblue]
	140035840340712 -> 140035840340432
	140035840340712 [label="layer1.0.conv3.weight
 (256, 64, 1, 1)" fillcolor=lightblue]
	140035840340488 -> 140035840340264
	140035840340488 [label="layer1.0.bn3.weight
 (256)" fillcolor=lightblue]
	140035840340544 -> 140035840340264
	140035840340544 [label="layer1.0.bn3.bias
 (256)" fillcolor=lightblue]
	140035840340320 -> 140035840340096
	140035840340320 [label=NativeBatchNormBackward]
	140035840340600 -> 140035840340320
	140035840340600 [label=MkldnnConvolutionBackward]
	140035840341776 -> 140035840340600
	140035840340880 -> 140035840340600
	140035840340880 [label="layer1.0.downsample.0.weight
 (256, 64, 1, 1)" fillcolor=lightblue]
	140035840340768 -> 140035840340320
	140035840340768 [label="layer1.0.downsample.1.weight
 (256)" fillcolor=lightblue]
	140035840341160 -> 140035840340320
	140035840341160 [label="layer1.0.downsample.1.bias
 (256)" fillcolor=lightblue]
	140035840274384 -> 140035840274160
	140035840274384 [label="layer1.1.conv1.weight
 (64, 256, 1, 1)" fillcolor=lightblue]
	140035840274216 -> 140035840273992
	140035840274216 [label="layer1.1.bn1.weight
 (64)" fillcolor=lightblue]
	140035840274272 -> 140035840273992
	140035840274272 [label="layer1.1.bn1.bias
 (64)" fillcolor=lightblue]
	140035840273880 -> 140035840273600
	140035840273880 [label="layer1.1.conv2.weight
 (64, 64, 3, 3)" fillcolor=lightblue]
	140035840273656 -> 140035840273432
	140035840273656 [label="layer1.1.bn2.weight
 (64)" fillcolor=lightblue]
	140035840273712 -> 140035840273432
	140035840273712 [label="layer1.1.bn2.bias
 (64)" fillcolor=lightblue]
	140035840273320 -> 140035840273040
	140035840273320 [label="layer1.1.conv3.weight
 (256, 64, 1, 1)" fillcolor=lightblue]
	140035840273096 -> 140035840272872
	140035840273096 [label="layer1.1.bn3.weight
 (256)" fillcolor=lightblue]
	140035840273152 -> 140035840272872
	140035840273152 [label="layer1.1.bn3.bias
 (256)" fillcolor=lightblue]
	140035840272928 -> 140035840272704
	140035840272592 -> 140035840272368
	140035840272592 [label="layer1.2.conv1.weight
 (64, 256, 1, 1)" fillcolor=lightblue]
	140035840272424 -> 140035840272200
	140035840272424 [label="layer1.2.bn1.weight
 (64)" fillcolor=lightblue]
	140035840272480 -> 140035840272200
	140035840272480 [label="layer1.2.bn1.bias
 (64)" fillcolor=lightblue]
	140035840272088 -> 140035840271808
	140035840272088 [label="layer1.2.conv2.weight
 (64, 64, 3, 3)" fillcolor=lightblue]
	140035840271864 -> 140035840271640
	140035840271864 [label="layer1.2.bn2.weight
 (64)" fillcolor=lightblue]
	140035840271920 -> 140035840271640
	140035840271920 [label="layer1.2.bn2.bias
 (64)" fillcolor=lightblue]
	140035840271528 -> 140035840271248
	140035840271528 [label="layer1.2.conv3.weight
 (256, 64, 1, 1)" fillcolor=lightblue]
	140035840271304 -> 140035840271080
	140035840271304 [label="layer1.2.bn3.weight
 (256)" fillcolor=lightblue]
	140035840271360 -> 140035840271080
	140035840271360 [label="layer1.2.bn3.bias
 (256)" fillcolor=lightblue]
	140035840271136 -> 140035840270912
	140035840270800 -> 140035840270520
	140035840270800 [label="layer2.0.conv1.weight
 (128, 256, 1, 1)" fillcolor=lightblue]
	140035840270576 -> 140035840225232
	140035840270576 [label="layer2.0.bn1.weight
 (128)" fillcolor=lightblue]
	140035840270632 -> 140035840225232
	140035840270632 [label="layer2.0.bn1.bias
 (128)" fillcolor=lightblue]
	140035840225120 -> 140035840224840
	140035840225120 [label="layer2.0.conv2.weight
 (128, 128, 3, 3)" fillcolor=lightblue]
	140035840224896 -> 140035840224672
	140035840224896 [label="layer2.0.bn2.weight
 (128)" fillcolor=lightblue]
	140035840224952 -> 140035840224672
	140035840224952 [label="layer2.0.bn2.bias
 (128)" fillcolor=lightblue]
	140035840224560 -> 140035840224280
	140035840224560 [label="layer2.0.conv3.weight
 (512, 128, 1, 1)" fillcolor=lightblue]
	140035840224336 -> 140035840224112
	140035840224336 [label="layer2.0.bn3.weight
 (512)" fillcolor=lightblue]
	140035840224392 -> 140035840224112
	140035840224392 [label="layer2.0.bn3.bias
 (512)" fillcolor=lightblue]
	140035840224168 -> 140035840223944
	140035840224168 [label=NativeBatchNormBackward]
	140035840224448 -> 140035840224168
	140035840224448 [label=MkldnnConvolutionBackward]
	140035840270744 -> 140035840224448
	140035840224728 -> 140035840224448
	140035840224728 [label="layer2.0.downsample.0.weight
 (512, 256, 1, 1)" fillcolor=lightblue]
	140035840224616 -> 140035840224168
	140035840224616 [label="layer2.0.downsample.1.weight
 (512)" fillcolor=lightblue]
	140035840225008 -> 140035840224168
	140035840225008 [label="layer2.0.downsample.1.bias
 (512)" fillcolor=lightblue]
	140035840223832 -> 140035840223608
	140035840223832 [label="layer2.1.conv1.weight
 (128, 512, 1, 1)" fillcolor=lightblue]
	140035840223664 -> 140035840223440
	140035840223664 [label="layer2.1.bn1.weight
 (128)" fillcolor=lightblue]
	140035840223720 -> 140035840223440
	140035840223720 [label="layer2.1.bn1.bias
 (128)" fillcolor=lightblue]
	140035840223328 -> 140035840223048
	140035840223328 [label="layer2.1.conv2.weight
 (128, 128, 3, 3)" fillcolor=lightblue]
	140035840223104 -> 140035840222880
	140035840223104 [label="layer2.1.bn2.weight
 (128)" fillcolor=lightblue]
	140035840223160 -> 140035840222880
	140035840223160 [label="layer2.1.bn2.bias
 (128)" fillcolor=lightblue]
	140035840222768 -> 140035840222488
	140035840222768 [label="layer2.1.conv3.weight
 (512, 128, 1, 1)" fillcolor=lightblue]
	140035840222544 -> 140035840222320
	140035840222544 [label="layer2.1.bn3.weight
 (512)" fillcolor=lightblue]
	140035840222600 -> 140035840222320
	140035840222600 [label="layer2.1.bn3.bias
 (512)" fillcolor=lightblue]
	140035840222376 -> 140035840222152
	140035840222040 -> 140035840221816
	140035840222040 [label="layer2.2.conv1.weight
 (128, 512, 1, 1)" fillcolor=lightblue]
	140035840221872 -> 140035840221648
	140035840221872 [label="layer2.2.bn1.weight
 (128)" fillcolor=lightblue]
	140035840221928 -> 140035840221648
	140035840221928 [label="layer2.2.bn1.bias
 (128)" fillcolor=lightblue]
	140035840221536 -> 140035840221256
	140035840221536 [label="layer2.2.conv2.weight
 (128, 128, 3, 3)" fillcolor=lightblue]
	140035840221312 -> 140035840249696
	140035840221312 [label="layer2.2.bn2.weight
 (128)" fillcolor=lightblue]
	140035840221368 -> 140035840249696
	140035840221368 [label="layer2.2.bn2.bias
 (128)" fillcolor=lightblue]
	140035840249584 -> 140035840249304
	140035840249584 [label="layer2.2.conv3.weight
 (512, 128, 1, 1)" fillcolor=lightblue]
	140035840249360 -> 140035840249136
	140035840249360 [label="layer2.2.bn3.weight
 (512)" fillcolor=lightblue]
	140035840249416 -> 140035840249136
	140035840249416 [label="layer2.2.bn3.bias
 (512)" fillcolor=lightblue]
	140035840249192 -> 140035840248968
	140035840248856 -> 140035840248632
	140035840248856 [label="layer2.3.conv1.weight
 (128, 512, 1, 1)" fillcolor=lightblue]
	140035840248688 -> 140035840248464
	140035840248688 [label="layer2.3.bn1.weight
 (128)" fillcolor=lightblue]
	140035840248744 -> 140035840248464
	140035840248744 [label="layer2.3.bn1.bias
 (128)" fillcolor=lightblue]
	140035840248352 -> 140035840248072
	140035840248352 [label="layer2.3.conv2.weight
 (128, 128, 3, 3)" fillcolor=lightblue]
	140035840248128 -> 140035840247904
	140035840248128 [label="layer2.3.bn2.weight
 (128)" fillcolor=lightblue]
	140035840248184 -> 140035840247904
	140035840248184 [label="layer2.3.bn2.bias
 (128)" fillcolor=lightblue]
	140035840247792 -> 140035840247512
	140035840247792 [label="layer2.3.conv3.weight
 (512, 128, 1, 1)" fillcolor=lightblue]
	140035840247568 -> 140035840247344
	140035840247568 [label="layer2.3.bn3.weight
 (512)" fillcolor=lightblue]
	140035840247624 -> 140035840247344
	140035840247624 [label="layer2.3.bn3.bias
 (512)" fillcolor=lightblue]
	140035840247400 -> 140035840247176
	140035840247064 -> 140035840246784
	140035840247064 [label="layer3.0.conv1.weight
 (256, 512, 1, 1)" fillcolor=lightblue]
	140035840246840 -> 140035840246616
	140035840246840 [label="layer3.0.bn1.weight
 (256)" fillcolor=lightblue]
	140035840246896 -> 140035840246616
	140035840246896 [label="layer3.0.bn1.bias
 (256)" fillcolor=lightblue]
	140035840246504 -> 140035840246224
	140035840246504 [label="layer3.0.conv2.weight
 (256, 256, 3, 3)" fillcolor=lightblue]
	140035840246280 -> 140035840246056
	140035840246280 [label="layer3.0.bn2.weight
 (256)" fillcolor=lightblue]
	140035840246336 -> 140035840246056
	140035840246336 [label="layer3.0.bn2.bias
 (256)" fillcolor=lightblue]
	140035840245944 -> 140035840261984
	140035840245944 [label="layer3.0.conv3.weight
 (1024, 256, 1, 1)" fillcolor=lightblue]
	140035840262040 -> 140035840261816
	140035840262040 [label="layer3.0.bn3.weight
 (1024)" fillcolor=lightblue]
	140035840262096 -> 140035840261816
	140035840262096 [label="layer3.0.bn3.bias
 (1024)" fillcolor=lightblue]
	140035840261872 -> 140035840261648
	140035840261872 [label=NativeBatchNormBackward]
	140035840245832 -> 140035840261872
	140035840245832 [label=MkldnnConvolutionBackward]
	140035840247008 -> 140035840245832
	140035840246112 -> 140035840245832
	140035840246112 [label="layer3.0.downsample.0.weight
 (1024, 512, 1, 1)" fillcolor=lightblue]
	140035840246000 -> 140035840261872
	140035840246000 [label="layer3.0.downsample.1.weight
 (1024)" fillcolor=lightblue]
	140035840246392 -> 140035840261872
	140035840246392 [label="layer3.0.downsample.1.bias
 (1024)" fillcolor=lightblue]
	140035840261536 -> 140035840261312
	140035840261536 [label="layer3.1.conv1.weight
 (256, 1024, 1, 1)" fillcolor=lightblue]
	140035840261368 -> 140035840261144
	140035840261368 [label="layer3.1.bn1.weight
 (256)" fillcolor=lightblue]
	140035840261424 -> 140035840261144
	140035840261424 [label="layer3.1.bn1.bias
 (256)" fillcolor=lightblue]
	140035840261032 -> 140035840260752
	140035840261032 [label="layer3.1.conv2.weight
 (256, 256, 3, 3)" fillcolor=lightblue]
	140035840260808 -> 140035840260584
	140035840260808 [label="layer3.1.bn2.weight
 (256)" fillcolor=lightblue]
	140035840260864 -> 140035840260584
	140035840260864 [label="layer3.1.bn2.bias
 (256)" fillcolor=lightblue]
	140035840260472 -> 140035840260192
	140035840260472 [label="layer3.1.conv3.weight
 (1024, 256, 1, 1)" fillcolor=lightblue]
	140035840260248 -> 140035840260024
	140035840260248 [label="layer3.1.bn3.weight
 (1024)" fillcolor=lightblue]
	140035840260304 -> 140035840260024
	140035840260304 [label="layer3.1.bn3.bias
 (1024)" fillcolor=lightblue]
	140035840260080 -> 140035840259856
	140035840259744 -> 140035840259520
	140035840259744 [label="layer3.2.conv1.weight
 (256, 1024, 1, 1)" fillcolor=lightblue]
	140035840259576 -> 140035840259352
	140035840259576 [label="layer3.2.bn1.weight
 (256)" fillcolor=lightblue]
	140035840259632 -> 140035840259352
	140035840259632 [label="layer3.2.bn1.bias
 (256)" fillcolor=lightblue]
	140035840259240 -> 140035840258960
	140035840259240 [label="layer3.2.conv2.weight
 (256, 256, 3, 3)" fillcolor=lightblue]
	140035840259016 -> 140035840258792
	140035840259016 [label="layer3.2.bn2.weight
 (256)" fillcolor=lightblue]
	140035840259072 -> 140035840258792
	140035840259072 [label="layer3.2.bn2.bias
 (256)" fillcolor=lightblue]
	140035840258680 -> 140035840258400
	140035840258680 [label="layer3.2.conv3.weight
 (1024, 256, 1, 1)" fillcolor=lightblue]
	140035840258456 -> 140035840258232
	140035840258456 [label="layer3.2.bn3.weight
 (1024)" fillcolor=lightblue]
	140035840258512 -> 140035840258232
	140035840258512 [label="layer3.2.bn3.bias
 (1024)" fillcolor=lightblue]
	140035840258288 -> 140035840298960
	140035840298848 -> 140035840298624
	140035840298848 [label="layer3.3.conv1.weight
 (256, 1024, 1, 1)" fillcolor=lightblue]
	140035840298680 -> 140035840298456
	140035840298680 [label="layer3.3.bn1.weight
 (256)" fillcolor=lightblue]
	140035840298736 -> 140035840298456
	140035840298736 [label="layer3.3.bn1.bias
 (256)" fillcolor=lightblue]
	140035840298344 -> 140035840298064
	140035840298344 [label="layer3.3.conv2.weight
 (256, 256, 3, 3)" fillcolor=lightblue]
	140035840298120 -> 140035840297896
	140035840298120 [label="layer3.3.bn2.weight
 (256)" fillcolor=lightblue]
	140035840298176 -> 140035840297896
	140035840298176 [label="layer3.3.bn2.bias
 (256)" fillcolor=lightblue]
	140035840297784 -> 140035840297504
	140035840297784 [label="layer3.3.conv3.weight
 (1024, 256, 1, 1)" fillcolor=lightblue]
	140035840297560 -> 140035840297336
	140035840297560 [label="layer3.3.bn3.weight
 (1024)" fillcolor=lightblue]
	140035840297616 -> 140035840297336
	140035840297616 [label="layer3.3.bn3.bias
 (1024)" fillcolor=lightblue]
	140035840297392 -> 140035840297168
	140035840297056 -> 140035840296832
	140035840297056 [label="layer3.4.conv1.weight
 (256, 1024, 1, 1)" fillcolor=lightblue]
	140035840296888 -> 140035840296664
	140035840296888 [label="layer3.4.bn1.weight
 (256)" fillcolor=lightblue]
	140035840296944 -> 140035840296664
	140035840296944 [label="layer3.4.bn1.bias
 (256)" fillcolor=lightblue]
	140035840296552 -> 140035840296272
	140035840296552 [label="layer3.4.conv2.weight
 (256, 256, 3, 3)" fillcolor=lightblue]
	140035840296328 -> 140035840296104
	140035840296328 [label="layer3.4.bn2.weight
 (256)" fillcolor=lightblue]
	140035840296384 -> 140035840296104
	140035840296384 [label="layer3.4.bn2.bias
 (256)" fillcolor=lightblue]
	140035840295992 -> 140035840295712
	140035840295992 [label="layer3.4.conv3.weight
 (1024, 256, 1, 1)" fillcolor=lightblue]
	140035840295768 -> 140035840295544
	140035840295768 [label="layer3.4.bn3.weight
 (1024)" fillcolor=lightblue]
	140035840295824 -> 140035840295544
	140035840295824 [label="layer3.4.bn3.bias
 (1024)" fillcolor=lightblue]
	140035840295600 -> 140035840295376
	140035840295264 -> 140035840295040
	140035840295264 [label="layer3.5.conv1.weight
 (256, 1024, 1, 1)" fillcolor=lightblue]
	140035840295096 -> 140035840311192
	140035840295096 [label="layer3.5.bn1.weight
 (256)" fillcolor=lightblue]
	140035840295152 -> 140035840311192
	140035840295152 [label="layer3.5.bn1.bias
 (256)" fillcolor=lightblue]
	140035840311080 -> 140035840310800
	140035840311080 [label="layer3.5.conv2.weight
 (256, 256, 3, 3)" fillcolor=lightblue]
	140035840310856 -> 140035840310632
	140035840310856 [label="layer3.5.bn2.weight
 (256)" fillcolor=lightblue]
	140035840310912 -> 140035840310632
	140035840310912 [label="layer3.5.bn2.bias
 (256)" fillcolor=lightblue]
	140035840310520 -> 140035840310240
	140035840310520 [label="layer3.5.conv3.weight
 (1024, 256, 1, 1)" fillcolor=lightblue]
	140035840310296 -> 140035840310072
	140035840310296 [label="layer3.5.bn3.weight
 (1024)" fillcolor=lightblue]
	140035840310352 -> 140035840310072
	140035840310352 [label="layer3.5.bn3.bias
 (1024)" fillcolor=lightblue]
	140035840310128 -> 140035840309904
	140035840309792 -> 140035840309512
	140035840309792 [label="layer4.0.conv1.weight
 (512, 1024, 1, 1)" fillcolor=lightblue]
	140035840309568 -> 140035840309344
	140035840309568 [label="layer4.0.bn1.weight
 (512)" fillcolor=lightblue]
	140035840309624 -> 140035840309344
	140035840309624 [label="layer4.0.bn1.bias
 (512)" fillcolor=lightblue]
	140035840309232 -> 140035840308952
	140035840309232 [label="layer4.0.conv2.weight
 (512, 512, 3, 3)" fillcolor=lightblue]
	140035840309008 -> 140035840308784
	140035840309008 [label="layer4.0.bn2.weight
 (512)" fillcolor=lightblue]
	140035840309064 -> 140035840308784
	140035840309064 [label="layer4.0.bn2.bias
 (512)" fillcolor=lightblue]
	140035840308672 -> 140035840308392
	140035840308672 [label="layer4.0.conv3.weight
 (2048, 512, 1, 1)" fillcolor=lightblue]
	140035840308448 -> 140035840308224
	140035840308448 [label="layer4.0.bn3.weight
 (2048)" fillcolor=lightblue]
	140035840308504 -> 140035840308224
	140035840308504 [label="layer4.0.bn3.bias
 (2048)" fillcolor=lightblue]
	140035840308280 -> 140035840308056
	140035840308280 [label=NativeBatchNormBackward]
	140035840308560 -> 140035840308280
	140035840308560 [label=MkldnnConvolutionBackward]
	140035840309736 -> 140035840308560
	140035840308840 -> 140035840308560
	140035840308840 [label="layer4.0.downsample.0.weight
 (2048, 1024, 1, 1)" fillcolor=lightblue]
	140035840308728 -> 140035840308280
	140035840308728 [label="layer4.0.downsample.1.weight
 (2048)" fillcolor=lightblue]
	140035840309120 -> 140035840308280
	140035840309120 [label="layer4.0.downsample.1.bias
 (2048)" fillcolor=lightblue]
	140035840307944 -> 140035840307720
	140035840307944 [label="layer4.1.conv1.weight
 (512, 2048, 1, 1)" fillcolor=lightblue]
	140035840307776 -> 140035840307552
	140035840307776 [label="layer4.1.bn1.weight
 (512)" fillcolor=lightblue]
	140035840307832 -> 140035840307552
	140035840307832 [label="layer4.1.bn1.bias
 (512)" fillcolor=lightblue]
	140035840307440 -> 140035840630680
	140035840307440 [label="layer4.1.conv2.weight
 (512, 512, 3, 3)" fillcolor=lightblue]
	140035840630736 -> 140035840630568
	140035840630736 [label="layer4.1.bn2.weight
 (512)" fillcolor=lightblue]
	140035840307272 -> 140035840630568
	140035840307272 [label="layer4.1.bn2.bias
 (512)" fillcolor=lightblue]
	140035840630456 -> 140035840630176
	140035840630456 [label="layer4.1.conv3.weight
 (2048, 512, 1, 1)" fillcolor=lightblue]
	140035840630232 -> 140035840630008
	140035840630232 [label="layer4.1.bn3.weight
 (2048)" fillcolor=lightblue]
	140035840630288 -> 140035840630008
	140035840630288 [label="layer4.1.bn3.bias
 (2048)" fillcolor=lightblue]
	140035840630064 -> 140035840629896
	140035840629784 -> 140035840629560
	140035840629784 [label="layer4.2.conv1.weight
 (512, 2048, 1, 1)" fillcolor=lightblue]
	140035840629616 -> 140035840629448
	140035840629616 [label="layer4.2.bn1.weight
 (512)" fillcolor=lightblue]
	140035840629672 -> 140035840629448
	140035840629672 [label="layer4.2.bn1.bias
 (512)" fillcolor=lightblue]
	140035840629336 -> 140035840629056
	140035840629336 [label="layer4.2.conv2.weight
 (512, 512, 3, 3)" fillcolor=lightblue]
	140035840629112 -> 140035840628944
	140035840629112 [label="layer4.2.bn2.weight
 (512)" fillcolor=lightblue]
	140035840629168 -> 140035840628944
	140035840629168 [label="layer4.2.bn2.bias
 (512)" fillcolor=lightblue]
	140035840628832 -> 140035840628440
	140035840628832 [label="layer4.2.conv3.weight
 (2048, 512, 1, 1)" fillcolor=lightblue]
	140035840628496 -> 140035840628384
	140035840628496 [label="layer4.2.bn3.weight
 (2048)" fillcolor=lightblue]
	140035840628048 -> 140035840628384
	140035840628048 [label="layer4.2.bn3.bias
 (2048)" fillcolor=lightblue]
	140035840628328 -> 140035840628216
	140035840571264 -> 140035840570424
	140035840571264 [label=TBackward]
	140035840570312 -> 140035840571264
	140035840570312 [label="fc.weight
 (1000, 2048)" fillcolor=lightblue]
}